﻿


EVENT   1
 PAGE   1
  281(1)
  250(bytes(0x04,0x08,0x6f,0x3a,0x0c,0x52,0x50,0x47,0x3a,0x3a,0x53,0x45,0x08,0x3a,0x0a,0x40,0x6e,0x61,0x6d,0x65,0x49,0x22,0x09,0x4d,0x6f,0x76,0x65,0x06,0x3a,0x06,0x45,0x54,0x3a,0x0b,0x40,0x70,0x69,0x74,0x63,0x68,0x69,0x69,0x3a,0x0c,0x40,0x76,0x6f,0x6c,0x75,0x6d,0x65,0x69,0x55))
  TeleportPlayer(0,49,10,14,0,0)
  0()



EVENT   2
 PAGE   1
  281(1)
  250(bytes(0x04,0x08,0x6f,0x3a,0x0c,0x52,0x50,0x47,0x3a,0x3a,0x53,0x45,0x08,0x3a,0x0a,0x40,0x6e,0x61,0x6d,0x65,0x49,0x22,0x09,0x4d,0x6f,0x76,0x65,0x06,0x3a,0x06,0x45,0x54,0x3a,0x0b,0x40,0x70,0x69,0x74,0x63,0x68,0x69,0x69,0x3a,0x0c,0x40,0x76,0x6f,0x6c,0x75,0x6d,0x65,0x69,0x55))
  TeleportPlayer(0,49,28,17,0,0)
  0()



EVENT   3
 PAGE   1
  281(1)
  250(bytes(0x04,0x08,0x6f,0x3a,0x0c,0x52,0x50,0x47,0x3a,0x3a,0x53,0x45,0x08,0x3a,0x0a,0x40,0x6e,0x61,0x6d,0x65,0x49,0x22,0x09,0x4d,0x6f,0x76,0x65,0x06,0x3a,0x06,0x45,0x54,0x3a,0x0b,0x40,0x70,0x69,0x74,0x63,0x68,0x69,0x69,0x3a,0x0c,0x40,0x76,0x6f,0x6c,0x75,0x6d,0x65,0x69,0x55))
  TeleportPlayer(0,49,40,19,0,0)
  0()



EVENT   4
 PAGE   1
  281(1)
  250(bytes(0x04,0x08,0x6f,0x3a,0x0c,0x52,0x50,0x47,0x3a,0x3a,0x53,0x45,0x08,0x3a,0x0a,0x40,0x6e,0x61,0x6d,0x65,0x49,0x22,0x09,0x4d,0x6f,0x76,0x65,0x06,0x3a,0x06,0x45,0x54,0x3a,0x0b,0x40,0x70,0x69,0x74,0x63,0x68,0x69,0x69,0x3a,0x0c,0x40,0x76,0x6f,0x6c,0x75,0x6d,0x65,0x69,0x55))
  TeleportPlayer(0,49,12,28,0,0)
  0()



EVENT   5
 PAGE   1
  250(bytes(0x04,0x08,0x6f,0x3a,0x0c,0x52,0x50,0x47,0x3a,0x3a,0x53,0x45,0x08,0x3a,0x0a,0x40,0x6e,0x61,0x6d,0x65,0x49,0x22,0x09,0x4d,0x6f,0x76,0x65,0x06,0x3a,0x06,0x45,0x54,0x3a,0x0b,0x40,0x70,0x69,0x74,0x63,0x68,0x69,0x69,0x3a,0x0c,0x40,0x76,0x6f,0x6c,0x75,0x6d,0x65,0x69,0x55))
  TeleportPlayer(0,50,69,30,0,0)
  0()



EVENT   6
 PAGE   1
  250(bytes(0x04,0x08,0x6f,0x3a,0x0c,0x52,0x50,0x47,0x3a,0x3a,0x53,0x45,0x08,0x3a,0x0a,0x40,0x6e,0x61,0x6d,0x65,0x49,0x22,0x09,0x4d,0x6f,0x76,0x65,0x06,0x3a,0x06,0x45,0x54,0x3a,0x0b,0x40,0x70,0x69,0x74,0x63,0x68,0x69,0x69,0x3a,0x0c,0x40,0x76,0x6f,0x6c,0x75,0x6d,0x65,0x69,0x55))
  TeleportPlayer(0,50,70,30,0,0)
  0()



EVENT   7
 PAGE   1
  250(bytes(0x04,0x08,0x6f,0x3a,0x0c,0x52,0x50,0x47,0x3a,0x3a,0x53,0x45,0x08,0x3a,0x0a,0x40,0x6e,0x61,0x6d,0x65,0x49,0x22,0x09,0x4d,0x6f,0x76,0x65,0x06,0x3a,0x06,0x45,0x54,0x3a,0x0b,0x40,0x70,0x69,0x74,0x63,0x68,0x69,0x69,0x3a,0x0c,0x40,0x76,0x6f,0x6c,0x75,0x6d,0x65,0x69,0x55))
  TeleportPlayer(0,50,42,29,0,0)
  0()



EVENT   8
 PAGE   1
  250(bytes(0x04,0x08,0x6f,0x3a,0x0c,0x52,0x50,0x47,0x3a,0x3a,0x53,0x45,0x08,0x3a,0x0a,0x40,0x6e,0x61,0x6d,0x65,0x49,0x22,0x09,0x4d,0x6f,0x76,0x65,0x06,0x3a,0x06,0x45,0x54,0x3a,0x0b,0x40,0x70,0x69,0x74,0x63,0x68,0x69,0x69,0x3a,0x0c,0x40,0x76,0x6f,0x6c,0x75,0x6d,0x65,0x69,0x55))
  TeleportPlayer(0,50,43,29,0,0)
  0()



EVENT   9
 PAGE   1
  281(1)
  250(bytes(0x04,0x08,0x6f,0x3a,0x0c,0x52,0x50,0x47,0x3a,0x3a,0x53,0x45,0x08,0x3a,0x0a,0x40,0x6e,0x61,0x6d,0x65,0x49,0x22,0x09,0x4d,0x6f,0x76,0x65,0x06,0x3a,0x06,0x45,0x54,0x3a,0x0b,0x40,0x70,0x69,0x74,0x63,0x68,0x69,0x69,0x3a,0x0c,0x40,0x76,0x6f,0x6c,0x75,0x6d,0x65,0x69,0x55))
  TeleportPlayer(0,49,37,32,0,0)
  0()



EVENT   10
 PAGE   1
  281(1)
  250(bytes(0x04,0x08,0x6f,0x3a,0x0c,0x52,0x50,0x47,0x3a,0x3a,0x53,0x45,0x08,0x3a,0x0a,0x40,0x6e,0x61,0x6d,0x65,0x49,0x22,0x09,0x4d,0x6f,0x76,0x65,0x06,0x3a,0x06,0x45,0x54,0x3a,0x0b,0x40,0x70,0x69,0x74,0x63,0x68,0x69,0x69,0x3a,0x0c,0x40,0x76,0x6f,0x6c,0x75,0x6d,0x65,0x69,0x55))
  TeleportPlayer(0,49,35,46,0,0)
  0()



EVENT   11
 PAGE   1
  If(1,1063,0,12,2)
   ShowMessageFace("",0,0,2,1)
   ShowMessage("【道具屋】")
   ShowMessage("アイテム……")
   ShowMessage("王妃様に、全部送ってしまいたい……")
   0()
  EndIf()
  If(1,1063,0,13,1)
   ShowMessageFace("",0,0,2,2)
   ShowMessage("【道具屋】")
   ShowMessage("理性がなくても通常営業してたらしいです。")
   ShowMessage("流石は私、ちゃんと帳簿までつけてある……")
   0()
  EndIf()
  Shop(0,2,0,0,false)
  605(0,7,0,0)
  605(0,11,0,0)
  605(0,13,0,0)
  605(0,14,0,0)
  605(0,15,0,0)
  605(0,16,0,0)
  605(0,17,0,0)
  605(0,18,0,0)
  605(0,19,0,0)
  605(0,20,0,0)
  605(0,23,0,0)
  605(0,35,0,0)
  0()



EVENT   12
 PAGE   1
  If(1,1063,0,5,0)
   ShowMessageFace("",0,0,2,1)
   ShowMessage("【マスター】")
   ShowMessage("うぅぅ……")
   ShowMessage("い、いらっしゃいませ……ご注文をうかがいましょう……")
   ShowChoices(strings("酒を注文する","ローストチキンを注文する","注文はない"),3)
   IfPlayerPicksChoice(0,null)
    Shop(0,428,0,0,false)
    605(0,429,0,0)
    605(0,431,0,0)
    0()
   IfPlayerPicksChoice(1,null)
    ShowMessageFace("",0,0,2,2)
    ShowMessage("【マスター】")
    ShowMessage("お客さん、ここは酒場です。")
    ShowMessage("そういうのは扱っておりませんよ……")
    ShowMessageFace("",0,0,2,3)
    ShowMessage("【マスター】")
    ShowMessage("そういうわけで、二階へどうぞ。")
    ShowMessage("そちらで特大のローストチキンを用意しましょう……")
    If(4,53,0)
     ShowMessageFace("slime_fc1",0,0,2,4)
     ShowMessage("【ライム】")
     ShowMessage("やったあ！　特大ローストチキンだぁ！")
     ShowMessageFace("sonia_fc2",2,0,2,5)
     ShowMessage("【ソニア】")
     ShowMessage("ライムちゃん……ないよ。")
     0()
    EndIf()
    ChangeVariable(1063,1063,0,0,6)
    EndEventProcessing()
    0()
   IfPlayerPicksChoice(2,null)
    EndEventProcessing()
    0()
   404()
   0()
  EndIf()
  If(1,1063,0,6,0)
   ShowMessageFace("",0,0,2,6)
   ShowMessage("【マスター】")
   ShowMessage("お早く、二階へどうぞ……")
   ShowMessage("そちらでローストチキンを用意しておりますので。")
   ShowMessageFace("",0,0,2,7)
   ShowMessage("【マスター】")
   ShowMessage("うぅぅ……あれだけ精神を鍛錬したのに……")
   ShowMessage("これ以上は、正気を保てそうにない……")
   EndEventProcessing()
   0()
  EndIf()
  If(1,1063,0,7,1)
   If(1,1063,0,12,2)
    ShowMessageFace("",0,0,2,8)
    ShowMessage("【マスター】")
    ShowMessage("王妃様ぁぁぁ……あはっ、あはあは……")
    If(0,4,0)
     ShowMessageFace("alice_fc5",0,0,2,9)
     ShowMessage("【アリス】")
     ShowMessage("我々が来るまで、鉄の意志で正気を保っていたのだな……")
     ShowMessage("この作戦、必ず成功させてみせるぞ。")
     0()
    EndIf()
    If(0,5,0)
     ShowMessageFace("iriasu_fc4",2,0,2,10)
     ShowMessage("【イリアス】")
     ShowMessage("私達が来るまで、鉄の意志で正気を保っていたのですね……")
     ShowMessage("この献身、必ずや報いなければなりません。")
     0()
    EndIf()
    EndEventProcessing()
    0()
   EndIf()
   0()
  EndIf()
  If(1,1063,0,13,1)
   ShowMessageFace("",0,0,2,11)
   ShowMessage("【マスター】")
   ShowMessage("いらっしゃいませ、ご注文をうかがいましょう。")
   ShowChoices(strings("酒を注文する","ローストチキンを注文する","注文はない"),3)
   IfPlayerPicksChoice(0,null)
    Shop(0,428,0,0,false)
    605(0,429,0,0)
    605(0,431,0,0)
    0()
   IfPlayerPicksChoice(1,null)
    ShowMessageFace("",0,0,2,12)
    ShowMessage("【マスター】")
    ShowMessage("お客さん、ここは酒場です。")
    ShowMessage("そういうのは扱っておりませんよ……")
    ShowMessageFace("",0,0,2,13)
    ShowMessage("【マスター】")
    ShowMessage("そういうわけで、ドンによろしくお伝え下さい。")
    355("actor_label_jump")
    EndEventProcessing()
    DefineLabel("520")
    ShowMessageFace("lazarus3_fc1",0,0,2,14)
    ShowMessage("【ラザロ】")
    ShowMessage("おう……また何かあったら、頼むぜ。")
    ShowMessageFace("",0,0,2,15)
    ShowMessage("【マスター】")
    ShowMessage("ええ……お任せを。")
    EndEventProcessing()
    DefineLabel("522")
    ShowMessageFace("merlin_fc1",0,0,2,16)
    ShowMessage("【マーリン】")
    ShowMessage("良い仕事でした。")
    ShowMessage("次も期待していますよ……")
    ShowMessageFace("",0,0,2,17)
    ShowMessage("【マスター】")
    ShowMessage("ええ……お任せを。")
    EndEventProcessing()
    0()
   IfPlayerPicksChoice(2,null)
    EndEventProcessing()
    0()
   404()
   0()
  EndIf()
  0()



EVENT   13
 PAGE   1
  If(1,1063,0,12,2)
   ShowMessageFace("",0,0,2,1)
   ShowMessage("【アクセサリ屋】")
   ShowMessage("あ、あ、アクセサリ……")
   ShowMessage("あはは、あはあはアクセサリ……")
   0()
  EndIf()
  If(1,1063,0,13,1)
   ShowMessageFace("",0,0,2,2)
   ShowMessage("【アクセサリ屋】")
   ShowMessage("もしもの時のアクセサリ。")
   ShowMessage("食らって困るゾンビ化攻撃、ゾンビチェックで防ぎましょう。")
   0()
  EndIf()
  Shop(2,1458,0,0,false)
  605(2,1461,0,0)
  605(2,1464,0,0)
  605(2,1467,0,0)
  605(2,1572,0,0)
  605(2,1574,0,0)
  605(2,1576,0,0)
  605(2,1578,0,0)
  0()



EVENT   14
 PAGE   1
  If(1,1078,0,0,0)
   PictureDisplay(5,"80_mob_marin_st01",0,0,0,0,100,100,0,0)
   PictureMove(5,null,0,0,0,0,100,100,255,0,30,true)
   ShowMessageFace("mob_mahousyouzyo_fc1",0,0,2,1)
   ShowMessage("【マジカルまりんちゃん】")
   ShowMessage("あたしは、マジカル☆まりんちゃん。")
   ShowMessage("魔法少女だよっ♪")
   ShowMessageFace("mob_mahousyouzyo_fc1",0,0,2,2)
   ShowMessage("【マジカルまりんちゃん】")
   ShowMessage("ねぇ、キミも魔法少女になってみる？")
   ShowChoices(strings("なってみる","イヤだ"),2)
   IfPlayerPicksChoice(0,null)
    ShowMessageFace("mob_mahousyouzyo_fc1",0,0,2,3)
    ShowMessage("【マジカルまりんちゃん】")
    ShowMessage("でも……まだ、儀式の時期じゃないみたい。")
    ShowMessage("もうちょっと待っててね☆")
    If(4,53,0)
     ShowMessageFace("slime_fc1",0,0,2,4)
     ShowMessage("【ライム】")
     ShowMessage("まつよ～！")
     0()
    EndIf()
    PictureClear(5)
    EndEventProcessing()
    0()
   IfPlayerPicksChoice(1,null)
    ShowMessageFace("mob_mahousyouzyo_fc1",0,0,2,5)
    ShowMessage("【マジカルまりんちゃん】")
    ShowMessage("そうなの、残念だなぁ……")
    PictureClear(5)
    EndEventProcessing()
    0()
   404()
   0()
  EndIf()
  If(1,1078,0,1,0)
   PictureDisplay(5,"80_mob_marin_st01",0,0,0,0,100,100,0,0)
   PictureMove(5,null,0,0,0,0,100,100,255,0,30,true)
   ShowMessageFace("mob_mahousyouzyo_fc1",0,0,2,6)
   ShowMessage("【マジカルまりんちゃん】")
   ShowMessage("あたしは、マジカル☆まりんちゃん。")
   ShowMessage("魔法少女だよっ♪")
   ShowMessageFace("mob_mahousyouzyo_fc1",0,0,2,7)
   ShowMessage("【マジカルまりんちゃん】")
   ShowMessage("ねぇ、キミも魔法少女になってみる？")
   ShowMessage("今は駆け込み大チャンス、他の候補者はもう会場で待ってるよ！")
   If(0,4,0)
    ShowMessageFace("alice_fc6",1,0,2,8)
    ShowMessage("【アリス】")
    ShowMessage("甘言を弄し、人を破滅に誘い込むな！")
    ShowMessage("魔法少女の力と、魔女の怨念は同じものだと知っているぞ！")
    0()
   EndIf()
   If(0,5,0)
    ShowMessageFace("iriasu_fc4",7,0,2,9)
    ShowMessage("【イリアス】")
    ShowMessage("甘言を弄し、人を破滅に引き込む気ですか！")
    ShowMessage("魔法少女の力は、魔女の怨念に通じる事など承知しています！")
    0()
   EndIf()
   If(4,167,0)
    ShowMessageFace("lusia_fc1",2,0,2,10)
    ShowMessage("【ルシア】")
    ShowMessage("極めて危険な呪法……")
    ShowMessage("魔導に携わる者として、行使させるわけにはいきません。")
    0()
   EndIf()
   ShowMessageFace("ruka_fc1",0,0,2,11)
   ShowMessage("【ルカ】")
   ShowMessage("僕達は、危険な儀式を止めに来たんだ！")
   241(bytes(0x04,0x08,0x6f,0x3a,0x0d,0x52,0x50,0x47,0x3a,0x3a,0x42,0x47,0x4d,0x08,0x3a,0x0a,0x40,0x6e,0x61,0x6d,0x65,0x49,0x22,0x0a,0x6b,0x69,0x6b,0x69,0x32,0x06,0x3a,0x06,0x45,0x54,0x3a,0x0c,0x40,0x76,0x6f,0x6c,0x75,0x6d,0x65,0x69,0x69,0x3a,0x0b,0x40,0x70,0x69,0x74,0x63,0x68,0x69,0x69))
   ShowMessageFace("mob_mahousyouzyo_fc1",0,0,2,12)
   ShowMessage("【マジカルまりんちゃん】")
   ShowMessage("でも、もうマジカル☆パワー（怨念）は溜まってるの……")
   ShowMessage("ここで儀式を行わないと、パワーが弾けて飛び散っちゃうよ。")
   If(0,4,0)
    ShowMessageFace("alice_fc6",0,0,2,13)
    ShowMessage("【アリス】")
    ShowMessage("むむむ……時はすでに遅いか。")
    ShowMessage("ここで魔法少女を定めねば、怨念の向かう先がなくなる……")
    ShowMessageFace("alice_fc5",2,0,2,14)
    ShowMessage("【アリス】")
    ShowMessage("そうなれば、怨念は周囲に広がって災厄となる……")
    ShowMessage("ここは魔法少女を選抜し、全ての怨念を押し付けるしかないな。")
    0()
   EndIf()
   If(0,5,0)
    ShowMessageFace("iriasu_fc4",2,0,2,15)
    ShowMessage("【イリアス】")
    ShowMessage("すでに、怨念はそこまで集まってしまった後でしたか……")
    ShowMessage("ここで魔法少女を定めなければ、怨念の集まる先がなくなりますね。")
    ShowMessageFace("iriasu_fc4",2,0,2,16)
    ShowMessage("【イリアス】")
    ShowMessage("そうなれば、怨念は周囲に広がり災いをもたらします。")
    ShowMessage("ここは魔法少女を選抜し、全ての怨念を押し付けるしかないでしょう。")
    0()
   EndIf()
   If(0,6,0)
    ShowMessageFace("sonia_fc2",5,0,2,17)
    ShowMessage("【ソニア】")
    ShowMessage("つまり魔法少女って、怨念の力を押し付けられた人なの！？")
    ShowMessage("明るい言葉で勧誘して、そんな扱いなんてひどい話じゃない！")
    0()
   Else()
    ShowMessageFace("ruka_fc1",0,0,2,18)
    ShowMessage("【ルカ】")
    ShowMessage("つまり魔法少女って、怨念の力を押し付けられた人なのか！？")
    ShowMessage("明るい言葉で勧誘して、ひどいじゃないか！")
    0()
   EndIf()
   If(4,226,0)
    ShowMessageFace("sirohebisama_fc1",0,0,2,19)
    ShowMessage("【白蛇様】")
    ShowMessage("迷惑な話じゃのう……")
    0()
   EndIf()
   ShowMessageFace("mob_mahousyouzyo_fc1",0,0,2,20)
   ShowMessage("【マジカルまりんちゃん】")
   ShowMessage("都合良いファンタジックパワーなんて、あるわけないじゃん。")
   ShowMessage("魔法少女は、怨念にまみれて生きていくしかないんだよ♪")
   ShowMessageFace("mob_mahousyouzyo_fc1",0,0,2,21)
   ShowMessage("【マジカルまりんちゃん】")
   ShowMessage("……このセリフ、選抜された最後の一人に言いたかったなぁ。")
   If(0,4,0)
    ShowMessageFace("alice_fc5",2,0,2,22)
    ShowMessage("【アリス】")
    ShowMessage("……いいだろう、我々も選抜試験に参加する。")
    ShowMessage("我々の中の誰かが、魔法少女となろう。")
    0()
   EndIf()
   If(0,5,0)
    ShowMessageFace("iriasu_fc4",7,0,2,23)
    ShowMessage("【イリアス】")
    ShowMessage("……いいでしょう、私達も選抜試験に参加します。")
    ShowMessage("私達の中の誰かが、魔法少女となりましょう。")
    0()
   EndIf()
   If(0,6,0)
    ShowMessageFace("sonia_fc2",2,0,2,24)
    ShowMessage("【ソニア】")
    ShowMessage("そんな……それでいいの？")
    0()
   Else()
    ShowMessageFace("ruka_fc1",0,0,2,25)
    ShowMessage("【ルカ】")
    ShowMessage("でも、それでいいの……？")
    0()
   EndIf()
   If(0,4,0)
    ShowMessageFace("alice_fc5",0,0,2,26)
    ShowMessage("【アリス】")
    ShowMessage("怨念の力が撒き散らされたり、悪しき者の手に渡るよりマシだ。")
    ShowMessage("我々なら、なんとか使いこなす事もできるだろう。")
    0()
   EndIf()
   If(0,5,0)
    ShowMessageFace("iriasu_fc4",7,0,2,27)
    ShowMessage("【イリアス】")
    ShowMessage("怨念の力が撒き散らされたり、悪しき者の手に渡るよりマシです。")
    ShowMessage("我々なら、なんとか使いこなす事もできるでしょう……")
    0()
   EndIf()
   If(4,167,0)
    ShowMessageFace("lusia_fc1",2,0,2,28)
    ShowMessage("【ルシア】")
    ShowMessage("それより他にありませんね。")
    ShowMessage("大きな力は、適切に管理されるべきです。")
    0()
   EndIf()
   If(4,163,0)
    ShowMessageFace("lily_fc1",3,0,2,29)
    ShowMessage("【リリィ】")
    ShowMessage("ふふっ、面白くなってきたじゃない……")
    0()
   EndIf()
   ShowMessageFace("mob_mahousyouzyo_fc1",0,0,2,30)
   ShowMessage("【マジカルまりんちゃん】")
   ShowMessage("それじゃあ、新たな候補がエントリー！")
   ShowMessage("ここでちょうど受付時間も終了、選抜の儀式を始めるよー♪")
   ShowMessageFace("ruka_fc1",0,0,2,31)
   ShowMessage("【ルカ】")
   ShowMessage("それで、選抜儀式って何をすればいいんだ……？")
   ShowMessageFace("mob_mahousyouzyo_fc1",0,0,2,32)
   ShowMessage("【マジカルまりんちゃん】")
   ShowMessage("魔法少女の候補を、東の大毒沼に集めてぇ……")
   ShowMessageFace("mob_mahousyouzyo_fc1",0,0,2,33)
   ShowMessage("【マジカルまりんちゃん】")
   ShowMessage("そして、情け無用のバトルロイヤル！")
   ShowMessage("最後まで立っていた者の勝ち♪")
   If(0,6,0)
    ShowMessageFace("sonia_fc3",2,0,2,34)
    ShowMessage("【ソニア】")
    ShowMessage("そんなに物理勝負なの！？")
    0()
   Else()
    ShowMessageFace("ruka_fc1",0,0,2,35)
    ShowMessage("【ルカ】")
    ShowMessage("えっ、バトルロイヤルなの！？")
    0()
   EndIf()
   If(4,218,0)
    ShowMessageFace("nyumaou_fc1",0,0,2,36)
    ShowMessage("【牛魔王】")
    ShowMessage("ふん、単純で良いではないか！")
    0()
   EndIf()
   ShowMessageFace("mob_mahousyouzyo_fc1",0,0,2,37)
   ShowMessage("【マジカルまりんちゃん】")
   ShowMessage("そういうわけで、東の大毒沼に急げ急げ～♪")
   ShowMessage("そこにいる魔法少女候補はみんな敵だから、最後まで生き延びてね。")
   PictureClear(5)
   If(0,4,0)
    ShowMessageFace("alice_fc5",2,0,2,38)
    ShowMessage("【アリス】")
    ShowMessage("よし、行くぞ……")
    ShowMessage("魔法少女の力、我々が手に入れる！")
    0()
   EndIf()
   If(0,5,0)
    ShowMessageFace("iriasu_fc4",7,0,2,39)
    ShowMessage("【イリアス】")
    ShowMessage("さあ、行きましょう……")
    ShowMessage("魔法少女の力、我々が手に入れます！")
    0()
   EndIf()
   If(4,288,0)
    ShowMessageFace("d_succubus_fc1",0,0,2,40)
    ShowMessage("【ナターシャ】")
    ShowMessage("魔法少女……ちょっと憧れますね。")
    0()
   EndIf()
   ShowMessageFace("",0,0,2,41)
   ShowMessage("こうして、成り行き的に魔法少女選抜儀式に参加する事となった。")
   ShowMessage("さあ、東の大毒沼に急ごう！")
   241(bytes(0x04,0x08,0x6f,0x3a,0x0d,0x52,0x50,0x47,0x3a,0x3a,0x42,0x47,0x4d,0x08,0x3a,0x0a,0x40,0x6e,0x61,0x6d,0x65,0x49,0x22,0x0a,0x63,0x69,0x74,0x79,0x31,0x06,0x3a,0x06,0x45,0x54,0x3a,0x0c,0x40,0x76,0x6f,0x6c,0x75,0x6d,0x65,0x69,0x69,0x3a,0x0b,0x40,0x70,0x69,0x74,0x63,0x68,0x69,0x69))
   ChangeVariable(1078,1078,0,0,2)
   EndEventProcessing()
   0()
  EndIf()
  If(1,1078,0,2,1)
   If(1,1078,0,4,2)
    PictureDisplay(5,"80_mob_marin_st01",0,0,0,0,100,100,0,0)
    PictureMove(5,null,0,0,0,0,100,100,255,0,30,true)
    ShowMessageFace("mob_mahousyouzyo_fc1",0,0,2,42)
    ShowMessage("【マジカルまりんちゃん】")
    ShowMessage("そういうわけで、東の大毒沼に急げ急げ～♪")
    ShowMessage("そこにいる魔法少女候補はみんな敵だから、最後まで生き延びてね。")
    PictureClear(5)
    EndEventProcessing()
    0()
   EndIf()
   0()
  EndIf()
  If(1,1078,0,5,1)
   If(1,828,0,2,1)
    If(0,1577,1)
     ShowMessageFace("mob_mahousyouzyo_fc1",0,0,2,43)
     ShowMessage("【マジカルまりんちゃん】")
     ShowMessage("ねぇ、あたしを仲間にしてくれない？")
     ShowMessage("世の中にマジカル☆パワーを広げないとね♪")
     ShowChoices(strings("仲間にする","仲間にしない"),0)
     IfPlayerPicksChoice(0,null)
      ShowMessageFace("mob_mahousyouzyo_fc2",0,0,2,44)
      ShowMessage("【マジカルまりんちゃん】")
      ShowMessage("きゅぴ～ん♪")
      PictureClear(5)
      205(0,bytes(0x04,0x08,0x6f,0x3a,0x13,0x52,0x50,0x47,0x3a,0x3a,0x4d,0x6f,0x76,0x65,0x52,0x6f,0x75,0x74,0x65,0x09,0x3a,0x0c,0x40,0x72,0x65,0x70,0x65,0x61,0x74,0x46,0x3a,0x0f,0x40,0x73,0x6b,0x69,0x70,0x70,0x61,0x62,0x6c,0x65,0x46,0x3a,0x0a,0x40,0x77,0x61,0x69,0x74,0x54,0x3a,0x0a,0x40,0x6c,0x69,0x73,0x74,0x5b,0x09,0x6f,0x3a,0x15,0x52,0x50,0x47,0x3a,0x3a,0x4d,0x6f,0x76,0x65,0x43,0x6f,0x6d,0x6d,0x61,0x6e,0x64,0x07,0x3a,0x0a,0x40,0x63,0x6f,0x64,0x65,0x69,0x2a,0x3a,0x10,0x40,0x70,0x61,0x72,0x61,0x6d,0x65,0x74,0x65,0x72,0x73,0x5b,0x00,0x6f,0x3b,0x0a,0x07,0x3b,0x0b,0x69,0x0f,0x3b,0x0c,0x5b,0x00,0x6f,0x3b,0x0a,0x07,0x3b,0x0b,0x69,0x2c,0x3b,0x0c,0x5b,0x00,0x6f,0x3b,0x0a,0x07,0x3b,0x0b,0x69,0x00,0x3b,0x0c,0x5b,0x00))
      355("add_actor_ex(577)")
      249(bytes(0x04,0x08,0x6f,0x3a,0x0c,0x52,0x50,0x47,0x3a,0x3a,0x4d,0x45,0x08,0x3a,0x0a,0x40,0x6e,0x61,0x6d,0x65,0x49,0x22,0x0c,0x66,0x61,0x6e,0x66,0x61,0x6c,0x65,0x06,0x3a,0x06,0x45,0x54,0x3a,0x0b,0x40,0x70,0x69,0x74,0x63,0x68,0x69,0x69,0x3a,0x0c,0x40,0x76,0x6f,0x6c,0x75,0x6d,0x65,0x69,0x69))
      ShowMessageFace("",0,0,2,45)
      ShowMessage("マジカルまりんちゃんが仲間に加わった！")
      Wait(60)
      EndEventProcessing()
      0()
     IfPlayerPicksChoice(1,null)
      ShowMessageFace("mob_mahousyouzyo_fc1",0,0,2,46)
      ShowMessage("【マジカルまりんちゃん】")
      ShowMessage("呪われろ。")
      0()
     404()
     0()
    EndIf()
    0()
   EndIf()
   RunCommonEvent(7271)
   0()
  EndIf()
  0()
 PAGE   2
  // condition: variable 1078 >= 5
  // condition: party contains actor #577
  0()



EVENT   15
 PAGE   1
  If(1,1063,0,5,2)
   ShowMessageFace("",0,0,2,1)
   ShowMessage("【主人】")
   ShowMessage("そ、そちらは……遠慮してもらえませんか……？")
   205(-1,bytes(0x04,0x08,0x6f,0x3a,0x13,0x52,0x50,0x47,0x3a,0x3a,0x4d,0x6f,0x76,0x65,0x52,0x6f,0x75,0x74,0x65,0x09,0x3a,0x0c,0x40,0x72,0x65,0x70,0x65,0x61,0x74,0x46,0x3a,0x0f,0x40,0x73,0x6b,0x69,0x70,0x70,0x61,0x62,0x6c,0x65,0x46,0x3a,0x0a,0x40,0x77,0x61,0x69,0x74,0x54,0x3a,0x0a,0x40,0x6c,0x69,0x73,0x74,0x5b,0x07,0x6f,0x3a,0x15,0x52,0x50,0x47,0x3a,0x3a,0x4d,0x6f,0x76,0x65,0x43,0x6f,0x6d,0x6d,0x61,0x6e,0x64,0x07,0x3a,0x0a,0x40,0x63,0x6f,0x64,0x65,0x69,0x06,0x3a,0x10,0x40,0x70,0x61,0x72,0x61,0x6d,0x65,0x74,0x65,0x72,0x73,0x5b,0x00,0x6f,0x3b,0x0a,0x07,0x3b,0x0b,0x69,0x00,0x3b,0x0c,0x5b,0x00))
   If(0,4,0)
    ShowMessageFace("alice_fc5",0,0,2,2)
    ShowMessage("【アリス】")
    ShowMessage("諜報員への合図を忘れるなよ。")
    ShowMessage("先にローストチキンを注文だからな。")
    0()
   EndIf()
   If(0,5,0)
    ShowMessageFace("iriasu_fc4",2,0,2,3)
    ShowMessage("【イリアス】")
    ShowMessage("諜報員への合図を忘れたのですか？")
    ShowMessage("先にローストチキンを注文ですよ……")
    0()
   EndIf()
   EndEventProcessing()
   0()
  EndIf()
  If(1,1063,0,6,0)
   If(0,6,0)
    ShowMessageFace("sonia_fc1",0,0,2,4)
    ShowMessage("【ソニア】")
    ShowMessage("でも、工作員ってどんな人なんだろ……")
    ShowMessage("いかにもスパイって感じの怪しい人物なのかな。")
    0()
   Else()
    ShowMessageFace("ruka_fc1",0,0,2,5)
    ShowMessage("【ルカ】")
    ShowMessage("でも、工作員ってどんな人だろ……")
    ShowMessage("スパイっぽい人なのかな。")
    0()
   EndIf()
   If(0,4,0)
    ShowMessageFace("alice_fc5",0,0,2,6)
    ShowMessage("【アリス】")
    ShowMessage("ドアホめ……スパイがスパイっぽい恰好をしているか。")
    ShowMessage("何の変哲もない、平凡な外見の者に決まっているだろう。")
    0()
   EndIf()
   If(0,5,0)
    ShowMessageFace("iriasu_fc4",2,0,2,7)
    ShowMessage("【イリアス】")
    ShowMessage("スパイが、スパイっぽい恰好をしているわけないでしょう。")
    ShowMessage("おおかた何の変哲もない、平凡な外見ですよ……")
    0()
   EndIf()
   If(0,6,0)
    ShowMessageFace("sonia_fc2",2,0,2,8)
    ShowMessage("【ソニア】")
    ShowMessage("まあ、そうよね。")
    ShowMessage("あやしい外見なんて、してるわけないか……")
    0()
   Else()
    ShowMessageFace("ruka_fc1",0,0,2,9)
    ShowMessage("【ルカ】")
    ShowMessage("そうだよね……")
    ShowMessage("あやしい外見なんて、してるわけないか。")
    0()
   EndIf()
   250(bytes(0x04,0x08,0x6f,0x3a,0x0c,0x52,0x50,0x47,0x3a,0x3a,0x53,0x45,0x08,0x3a,0x0a,0x40,0x6e,0x61,0x6d,0x65,0x49,0x22,0x09,0x4d,0x6f,0x76,0x65,0x06,0x3a,0x06,0x45,0x54,0x3a,0x0b,0x40,0x70,0x69,0x74,0x63,0x68,0x69,0x69,0x3a,0x0c,0x40,0x76,0x6f,0x6c,0x75,0x6d,0x65,0x69,0x55))
   TeleportPlayer(0,50,40,57,8,0)
   205(-1,bytes(0x04,0x08,0x6f,0x3a,0x13,0x52,0x50,0x47,0x3a,0x3a,0x4d,0x6f,0x76,0x65,0x52,0x6f,0x75,0x74,0x65,0x09,0x3a,0x0c,0x40,0x72,0x65,0x70,0x65,0x61,0x74,0x46,0x3a,0x0f,0x40,0x73,0x6b,0x69,0x70,0x70,0x61,0x62,0x6c,0x65,0x46,0x3a,0x0a,0x40,0x77,0x61,0x69,0x74,0x54,0x3a,0x0a,0x40,0x6c,0x69,0x73,0x74,0x5b,0x08,0x6f,0x3a,0x15,0x52,0x50,0x47,0x3a,0x3a,0x4d,0x6f,0x76,0x65,0x43,0x6f,0x6d,0x6d,0x61,0x6e,0x64,0x07,0x3a,0x0a,0x40,0x63,0x6f,0x64,0x65,0x69,0x09,0x3a,0x10,0x40,0x70,0x61,0x72,0x61,0x6d,0x65,0x74,0x65,0x72,0x73,0x5b,0x00,0x6f,0x3b,0x0a,0x07,0x3b,0x0b,0x69,0x08,0x3b,0x0c,0x5b,0x00,0x6f,0x3b,0x0a,0x07,0x3b,0x0b,0x69,0x00,0x3b,0x0c,0x5b,0x00))
   PictureDisplay(5,"80_nero_st02b",0,0,0,0,100,100,0,0)
   PictureMove(5,null,0,0,0,0,100,100,255,0,60,true)
   241(bytes(0x04,0x08,0x6f,0x3a,0x0d,0x52,0x50,0x47,0x3a,0x3a,0x42,0x47,0x4d,0x08,0x3a,0x0a,0x40,0x6e,0x61,0x6d,0x65,0x49,0x22,0x10,0x73,0x63,0x65,0x6e,0x65,0x5f,0x63,0x6f,0x6d,0x69,0x32,0x06,0x3a,0x06,0x45,0x54,0x3a,0x0c,0x40,0x76,0x6f,0x6c,0x75,0x6d,0x65,0x69,0x69,0x3a,0x0b,0x40,0x70,0x69,0x74,0x63,0x68,0x69,0x69))
   ShowMessageFace("nero_fc1",1,0,2,10)
   ShowMessage("【ネロ】")
   ShowMessage("どうも、スパイです。")
   If(0,6,0)
    ShowMessageFace("sonia_fc3",2,0,2,11)
    ShowMessage("【ソニア】")
    ShowMessage("すっごくあやしい！")
    0()
   Else()
    ShowMessageFace("ruka_fc1",0,0,2,12)
    ShowMessage("【ルカ】")
    ShowMessage("すごくあやしい！")
    0()
   EndIf()
   221()
   PictureClear(5)
   TeleportPlayer(0,50,46,57,6,0)
   205(20,bytes(0x04,0x08,0x6f,0x3a,0x13,0x52,0x50,0x47,0x3a,0x3a,0x4d,0x6f,0x76,0x65,0x52,0x6f,0x75,0x74,0x65,0x09,0x3a,0x0c,0x40,0x72,0x65,0x70,0x65,0x61,0x74,0x46,0x3a,0x0f,0x40,0x73,0x6b,0x69,0x70,0x70,0x61,0x62,0x6c,0x65,0x46,0x3a,0x0a,0x40,0x77,0x61,0x69,0x74,0x46,0x3a,0x0a,0x40,0x6c,0x69,0x73,0x74,0x5b,0x07,0x6f,0x3a,0x15,0x52,0x50,0x47,0x3a,0x3a,0x4d,0x6f,0x76,0x65,0x43,0x6f,0x6d,0x6d,0x61,0x6e,0x64,0x07,0x3a,0x0a,0x40,0x63,0x6f,0x64,0x65,0x69,0x15,0x3a,0x10,0x40,0x70,0x61,0x72,0x61,0x6d,0x65,0x74,0x65,0x72,0x73,0x5b,0x00,0x6f,0x3b,0x0a,0x07,0x3b,0x0b,0x69,0x00,0x3b,0x0c,0x5b,0x00))
   Wait(60)
   222()
   If(0,4,0)
    ShowMessageFace("alice_fc5",2,0,2,13)
    ShowMessage("【アリス】")
    ShowMessage("……それで、どういう事なのだ。")
    ShowMessage("まさか貴様が、グランドノアのスパイなのか？")
    0()
   EndIf()
   If(0,5,0)
    ShowMessageFace("iriasu_fc4",2,0,2,14)
    ShowMessage("【イリアス】")
    ShowMessage("……いったい、どういう事なのです。")
    ShowMessage("あなたがグランドノアのスパイなのですか？")
    0()
   EndIf()
   PictureDisplay(5,"80_nero_st01b",0,0,0,0,100,100,0,0)
   PictureMove(5,null,0,0,0,0,100,100,255,0,30,true)
   ShowMessageFace("nero_fc1",2,0,2,15)
   ShowMessage("【ネロ】")
   ShowMessage("いえ、実は違うのですが……")
   ShowMessage("義理と人情で、その代理を務める羽目になりました。")
   ShowMessageFace("nero_fc1",0,0,2,16)
   ShowMessage("【ネロ】")
   ShowMessage("本来の工作員は、そこにいる商人風の男性。")
   ShowMessage("しかしまあ、ちょっと事情がありまして……")
   PictureClear(5)
   ShowMessageFace("",0,0,2,17)
   ShowMessage("商人風の男は、ぼんやりしたまま人形のように突っ立っている。")
   ShowMessage("その額には、一枚の札が貼ってあった……")
   If(0,4,0)
    ShowMessageFace("alice_fc5",0,0,2,18)
    ShowMessage("【アリス】")
    ShowMessage("あれは、陰陽の札……")
    ShowMessage("どういう事だ、貴様の仕業か？")
    0()
   EndIf()
   If(0,5,0)
    ShowMessageFace("iriasu_fc4",2,0,2,19)
    ShowMessage("【イリアス】")
    ShowMessage("あれは、陰陽の札……")
    ShowMessage("あなたがやったのですか？")
    0()
   EndIf()
   PictureDisplay(5,"80_nero_st03b",0,0,0,0,100,100,0,0)
   PictureMove(5,null,0,0,0,0,100,100,255,0,30,true)
   ShowMessageFace("nero_fc1",2,0,2,20)
   ShowMessage("【ネロ】")
   ShowMessage("その……彼に少し話を聞こうとしたのですが……")
   ShowMessage("不審者と勘違いされ、騒ぎになりそうだったので……")
   If(0,4,0)
    ShowMessageFace("alice_fc5",3,0,2,21)
    ShowMessage("【アリス】")
    ShowMessage("それで陰陽の札を貼り、強引に大人しくさせたわけか。")
    ShowMessage("おそらく、数日はデクノボウだな……")
    0()
   EndIf()
   If(0,5,0)
    ShowMessageFace("iriasu_fc4",2,0,2,22)
    ShowMessage("【イリアス】")
    ShowMessage("それで陰陽の札を貼り、強引に黙らせたわけですか。")
    ShowMessage("おそらく、数日は人形同然でしょうね……")
    0()
   EndIf()
   241(bytes(0x04,0x08,0x6f,0x3a,0x0d,0x52,0x50,0x47,0x3a,0x3a,0x42,0x47,0x4d,0x08,0x3a,0x0a,0x40,0x6e,0x61,0x6d,0x65,0x49,0x22,0x16,0x64,0x75,0x6e,0x67,0x65,0x6f,0x6e,0x5f,0x63,0x6f,0x6c,0x6f,0x73,0x73,0x65,0x75,0x6d,0x06,0x3a,0x06,0x45,0x54,0x3a,0x0c,0x40,0x76,0x6f,0x6c,0x75,0x6d,0x65,0x69,0x69,0x3a,0x0b,0x40,0x70,0x69,0x74,0x63,0x68,0x69,0x69))
   PictureDisplay(5,"80_nero_st01b",0,0,0,0,100,100,255,0)
   ShowMessageFace("nero_fc1",0,0,2,23)
   ShowMessage("【ネロ】")
   ShowMessage("そういうわけで、私が彼から聞き出したメッセージを伝えます。")
   ShowMessage("皆さんには、グランゴルドに向かってもらうわけですが……")
   ShowMessageFace("nero_fc1",0,0,2,24)
   ShowMessage("【ネロ】")
   ShowMessage("ここから北東に、進軍の丘と呼ばれる丘があります。")
   ShowMessage("グランゴルドに至るには、そこを通過する必要があるのです。")
   If(0,4,0)
    ShowMessageFace("alice_fc5",0,0,2,25)
    ShowMessage("【アリス】")
    ShowMessage("進軍の丘か……過酷な地形だと聞いている。")
    ShowMessage("しかしそこを越えれば、グランゴルドは目前だな。")
    0()
   EndIf()
   If(0,5,0)
    ShowMessageFace("iriasu_fc4",2,0,2,26)
    ShowMessage("【イリアス】")
    ShowMessage("進軍の丘か……なかなか過酷な地形ですね。")
    ShowMessage("しかしそこを超えれば、グランゴルドは目前です。")
    0()
   EndIf()
   ShowMessageFace("nero_fc1",0,0,2,27)
   ShowMessage("【ネロ】")
   ShowMessage("その進軍の丘には、ゴーレムが配置されているとか。")
   ShowMessage("ご存じの通り、外敵を撃退する魔導の巨人です。")
   ShowMessageFace("nero_fc1",0,0,2,28)
   ShowMessage("【ネロ】")
   ShowMessage("その対策のため、グランドノアから助っ人が送られました。")
   ShowMessage("東の大毒沼にて、その助っ人と合流しろとの事です。")
   If(0,4,0)
    ShowMessageFace("alice_fc5",0,0,2,29)
    ShowMessage("【アリス】")
    ShowMessage("助っ人……ゴーレム退治の専門家か何かか？")
    ShowMessage("そいつの力を借り、進軍の丘を越えればいいのだな。")
    0()
   EndIf()
   If(0,5,0)
    ShowMessageFace("iriasu_fc4",2,0,2,30)
    ShowMessage("【イリアス】")
    ShowMessage("助っ人……ゴーレム退治の専門家でしょうか。")
    ShowMessage("その者の力を借り、進軍の丘を越えればいいのですね。")
    0()
   EndIf()
   ShowMessageFace("nero_fc1",0,0,2,31)
   ShowMessage("【ネロ】")
   ShowMessage("はい……進軍の丘を越えれば、グランゴルド城は近いです。")
   ShowMessage("そこでまた、新たな工作員に接触して下さい。")
   If(0,4,0)
    ShowMessageFace("alice_fc5",0,0,2,32)
    ShowMessage("【アリス】")
    ShowMessage("うむ、分かった……もう一度確認しておくぞ。")
    ShowMessage("我々は北東に向かい、大毒沼で助っ人と合流。")
    ShowMessageFace("alice_fc5",0,0,2,33)
    ShowMessage("【アリス】")
    ShowMessage("その者の力を借り、すぐ近くの進軍の丘を攻略。")
    ShowMessage("そしてグランゴルド城に向かう……というわけだな。")
    0()
   EndIf()
   If(0,5,0)
    ShowMessageFace("iriasu_fc4",0,0,2,34)
    ShowMessage("【イリアス】")
    ShowMessage("了解しました、今一度確認しておきましょう。")
    ShowMessage("我々は北東に向かい、大毒沼で助っ人とやらと合流。")
    ShowMessageFace("iriasu_fc4",0,0,2,35)
    ShowMessage("【イリアス】")
    ShowMessage("その者の力を借り、すぐ近くにある進軍の丘を踏破。")
    ShowMessage("そしてグランゴルド城に向かう……というわけですね。")
    0()
   EndIf()
   ShowMessageFace("nero_fc1",0,0,2,36)
   ShowMessage("【ネロ】")
   ShowMessage("私が聞き出した工作員からのメッセージは、以上です。")
   ShowMessage("そしてこれは、私からの個人的な贈り物なのですが……")
   250(bytes(0x04,0x08,0x6f,0x3a,0x0c,0x52,0x50,0x47,0x3a,0x3a,0x53,0x45,0x08,0x3a,0x0a,0x40,0x6e,0x61,0x6d,0x65,0x49,0x22,0x0a,0x49,0x74,0x65,0x6d,0x31,0x06,0x3a,0x06,0x45,0x54,0x3a,0x0b,0x40,0x70,0x69,0x74,0x63,0x68,0x69,0x69,0x3a,0x0c,0x40,0x76,0x6f,0x6c,0x75,0x6d,0x65,0x69,0x55))
   ChangeInventory_Item(533,0,0,1)
   ChangeSwitch(100,100,1)
   If(0,6,0)
    ShowMessageFace("sonia_fc3",2,0,2,37)
    ShowMessage("【ソニア】")
    ShowMessage("呪符なのに、呪符っぽくない名前！")
    0()
   Else()
    ShowMessageFace("ruka_fc1",0,0,2,38)
    ShowMessage("【ルカ】")
    ShowMessage("呪符なのに、呪符っぽくない名前！")
    0()
   EndIf()
   PictureDisplay(5,"80_nero_st02b",0,0,0,0,100,100,255,0)
   ShowMessageFace("nero_fc1",1,0,2,39)
   ShowMessage("【ネロ】")
   ShowMessage("ハイカラでしょう？")
   ShowMessage("これを持っていれば、移動魔法などの封印が解除されます。")
   ShowMessageFace("nero_fc1",1,0,2,40)
   ShowMessage("【ネロ】")
   ShowMessage("この地では、移動魔法やポケット魔王城などが使えないでしょう？")
   ShowMessage("その封印効果を無効化し、普通に使えるようになるのですよ。")
   If(0,4,0)
    ShowMessageFace("alice_fc5",0,0,2,41)
    ShowMessage("【アリス】")
    ShowMessage("しかし……これはずいぶん貴重な品であるはずだ。")
    ShowMessage("いったいなぜ、我々の旅を助けるのだ？")
    0()
   EndIf()
   If(0,5,0)
    ShowMessageFace("iriasu_fc4",2,0,2,42)
    ShowMessage("【イリアス】")
    ShowMessage("これは、ずいぶん貴重な品であるはず……")
    ShowMessage("なぜ、私達の旅を支援するのです？")
    0()
   EndIf()
   ShowMessageFace("nero_fc1",1,0,2,43)
   ShowMessage("【ネロ】")
   ShowMessage("いえ、ただの親切に過ぎませんよ……")
   If(0,4,0)
    ShowMessageFace("alice_fc5",0,0,2,44)
    ShowMessage("【アリス】")
    ShowMessage("工作員相手にミスをする上、嘘までヘタなのだな……")
    PictureDisplay(5,"80_nero_st03b",0,0,0,0,100,100,255,0)
    ShowMessageFace("nero_fc1",2,0,2,45)
    ShowMessage("【ネロ】")
    ShowMessage("す、すみません……")
    0()
   EndIf()
   If(0,5,0)
    ShowMessageFace("iriasu_fc4",2,0,2,46)
    ShowMessage("【イリアス】")
    ShowMessage("工作員相手にミスをし、嘘までヘタとは……")
    PictureDisplay(5,"80_nero_st03b",0,0,0,0,100,100,255,0)
    ShowMessageFace("nero_fc1",2,0,2,47)
    ShowMessage("【ネロ】")
    ShowMessage("誠に恐縮です………")
    0()
   EndIf()
   PictureClear(5)
   ShowMessageFace("",0,0,2,48)
   ShowMessage("ともかく、工作員からのメッセージを確かに受け取った。")
   ShowMessage("次は北東にあるという大毒沼に行き、助っ人と合流しよう！")
   ChangeVariable(1002,1002,0,0,29)
   ChangeVariable(1063,1063,0,0,7)
   241(bytes(0x04,0x08,0x6f,0x3a,0x0d,0x52,0x50,0x47,0x3a,0x3a,0x42,0x47,0x4d,0x08,0x3a,0x0a,0x40,0x6e,0x61,0x6d,0x65,0x49,0x22,0x0a,0x6d,0x75,0x72,0x61,0x33,0x06,0x3a,0x06,0x45,0x54,0x3a,0x0c,0x40,0x76,0x6f,0x6c,0x75,0x6d,0x65,0x69,0x69,0x3a,0x0b,0x40,0x70,0x69,0x74,0x63,0x68,0x69,0x69))
   EndEventProcessing()
   0()
  EndIf()
  If(1,1063,0,7,1)
   250(bytes(0x04,0x08,0x6f,0x3a,0x0c,0x52,0x50,0x47,0x3a,0x3a,0x53,0x45,0x08,0x3a,0x0a,0x40,0x6e,0x61,0x6d,0x65,0x49,0x22,0x09,0x4d,0x6f,0x76,0x65,0x06,0x3a,0x06,0x45,0x54,0x3a,0x0b,0x40,0x70,0x69,0x74,0x63,0x68,0x69,0x69,0x3a,0x0c,0x40,0x76,0x6f,0x6c,0x75,0x6d,0x65,0x69,0x55))
   TeleportPlayer(0,50,40,57,0,0)
   0()
  EndIf()
  0()



EVENT   16
 PAGE   1
  If(1,1063,0,12,2)
   ShowMessageFace("",0,0,2,1)
   ShowMessage("【鍛冶屋】")
   ShowMessage("王妃様ぁ……あはぁぁぁぁ……")
   ShowMessageFace("",0,0,2,2)
   ShowMessage("鍛冶屋は恍惚に浸っている……")
   ShowMessage("とても鍛冶ができる状態ではないようだ。")
   EndEventProcessing()
   0()
  EndIf()
  If(1,1063,0,13,1)
   ShowMessageFace("",0,0,2,3)
   ShowMessage("【鍛冶屋】")
   ShowMessage("畜生、まんまと洗脳されちまうとは……")
   ShowMessage("俺は鍛冶屋として三流だ！")
   ShowMessageFace("",0,0,2,4)
   ShowMessage("【鍛冶屋】")
   ShowMessage("ぬぁぁぁぁぁぁ――！！")
   ShowMessage("精神を、精神を鍛えねば！！")
   EndEventProcessing()
   0()
  EndIf()
  0()



EVENT   17
 PAGE   1
  250(bytes(0x04,0x08,0x6f,0x3a,0x0c,0x52,0x50,0x47,0x3a,0x3a,0x53,0x45,0x08,0x3a,0x0a,0x40,0x6e,0x61,0x6d,0x65,0x49,0x22,0x09,0x4d,0x6f,0x76,0x65,0x06,0x3a,0x06,0x45,0x54,0x3a,0x0b,0x40,0x70,0x69,0x74,0x63,0x68,0x69,0x69,0x3a,0x0c,0x40,0x76,0x6f,0x6c,0x75,0x6d,0x65,0x69,0x55))
  TeleportPlayer(0,50,27,12,0,0)
  0()



EVENT   18
 PAGE   1
  If(1,1063,0,12,2)
   ShowMessageFace("",0,0,2,1)
   ShowMessage("【おかみ】")
   ShowMessage("王妃様が泊まりにきてくれないかねぇ……")
   ShowMessage("だって、10Gなんだよ……\\$")
   ShowChoices(strings("はい","いいえ"),2)
   IfPlayerPicksChoice(0,null)
    If(7,10,0)
     125(1,0,10)
     221()
     249(bytes(0x04,0x08,0x6f,0x3a,0x0c,0x52,0x50,0x47,0x3a,0x3a,0x4d,0x45,0x08,0x3a,0x0a,0x40,0x6e,0x61,0x6d,0x65,0x49,0x22,0x08,0x49,0x6e,0x6e,0x06,0x3a,0x06,0x45,0x54,0x3a,0x0b,0x40,0x70,0x69,0x74,0x63,0x68,0x69,0x69,0x3a,0x0c,0x40,0x76,0x6f,0x6c,0x75,0x6d,0x65,0x69,0x69))
     Wait(150)
     314(0,0)
     222()
     0()
    Else()
     ShowMessageFace("",0,0,2,2)
     ShowMessage("【老婆】")
     ShowMessage("王妃様なら、お金だっていっぱい……")
     0()
    EndIf()
    0()
   IfPlayerPicksChoice(1,null)
    0()
   404()
   EndEventProcessing()
   0()
  EndIf()
  If(1,1063,0,13,1)
   ShowMessageFace("",0,0,2,3)
   ShowMessage("【宿屋のおかみ】")
   ShowMessage("いらっしゃい！")
   ShowMessage("10Gで夕食付きだよっ！\\$")
   ShowChoices(strings("はい","いいえ"),2)
   IfPlayerPicksChoice(0,null)
    If(7,10,0)
     125(1,0,10)
     221()
     249(bytes(0x04,0x08,0x6f,0x3a,0x0c,0x52,0x50,0x47,0x3a,0x3a,0x4d,0x45,0x08,0x3a,0x0a,0x40,0x6e,0x61,0x6d,0x65,0x49,0x22,0x08,0x49,0x6e,0x6e,0x06,0x3a,0x06,0x45,0x54,0x3a,0x0b,0x40,0x70,0x69,0x74,0x63,0x68,0x69,0x69,0x3a,0x0c,0x40,0x76,0x6f,0x6c,0x75,0x6d,0x65,0x69,0x69))
     Wait(150)
     314(0,0)
     222()
     0()
    Else()
     ShowMessageFace("",0,0,2,4)
     ShowMessage("【宿屋のおかみ】")
     ShowMessage("おや、お金が足りないね。")
     0()
    EndIf()
    0()
   IfPlayerPicksChoice(1,null)
    0()
   404()
   EndEventProcessing()
   0()
  EndIf()
  0()



EVENT   19
 PAGE   1
  ChangeSelfSwitch("A",0)
  If(0,4,0)
   ShowMessageFace("alice_fc5",0,0,2,1)
   ShowMessage("【アリス】")
   ShowMessage("工作員に接触するには、主人にローストチキンを注文しろ。")
   ShowMessage("そうすると、二階に通してくれるはずだ。")
   ShowMessageFace("alice_fc5",3,0,2,2)
   ShowMessage("【アリス】")
   ShowMessage("ここの主人が、正気ならば……だがな。")
   0()
  EndIf()
  If(0,5,0)
   ShowMessageFace("iriasu_fc4",0,0,2,3)
   ShowMessage("【イリアス】")
   ShowMessage("工作員に接触するには、ローストチキンを注文しなさい。")
   ShowMessage("そうすると、二階に通してくれるという手筈です。")
   ShowMessageFace("iriasu_fc4",2,0,2,4)
   ShowMessage("【イリアス】")
   ShowMessage("主人が正気ならば……ですけどね。")
   0()
  EndIf()
  0()
 PAGE   2
  // condition: self-switch A is ON
  0()



EVENT   20
 PAGE   1
  0()
 PAGE   2
  // condition: variable 1063 >= 7
  PictureDisplay(5,"80_nero_st01b",0,0,0,0,100,100,0,0)
  PictureMove(5,null,0,0,0,0,100,100,255,0,30,true)
  ShowMessageFace("nero_fc1",0,0,2,1)
  ShowMessage("【ネロ】")
  ShowMessage("今後の作戦内容は確かですか？")
  If(0,4,0)
   ShowMessageFace("alice_fc5",0,0,2,2)
   ShowMessage("【アリス】")
   ShowMessage("では、もう一度確認しておくぞ。")
   ShowMessage("我々は北東に向かい、大毒沼で助っ人と合流。")
   ShowMessageFace("alice_fc5",0,0,2,3)
   ShowMessage("【アリス】")
   ShowMessage("その者の力を借り、すぐ近くの進軍の丘を攻略。")
   ShowMessage("そしてグランゴルド城に向かう……というわけだな。")
   0()
  EndIf()
  If(0,5,0)
   ShowMessageFace("iriasu_fc4",0,0,2,4)
   ShowMessage("【イリアス】")
   ShowMessage("では、今一度確認しておきましょう。")
   ShowMessage("我々は北東に向かい、大毒沼で助っ人とやらと合流。")
   ShowMessageFace("iriasu_fc4",0,0,2,5)
   ShowMessage("【イリアス】")
   ShowMessage("その者の力を借り、すぐ近くにある進軍の丘を踏破。")
   ShowMessage("そしてグランゴルド城に向かう……というわけですね。")
   0()
  EndIf()
  ShowMessageFace("nero_fc1",0,0,2,6)
  ShowMessage("【ネロ】")
  ShowMessage("ええ、その通り。")
  ShowMessage("グランゴルドでは、くれぐれも油断されないように……")
  If(0,4,0)
   ShowMessageFace("alice_fc5",0,0,2,7)
   ShowMessage("【アリス】")
   ShowMessage("この町に淫気を振りまいたのは、「王妃」とやらの仕業だな。")
   ShowMessage("やはりそいつは、クィーンアントなのか……？")
   0()
  EndIf()
  If(0,5,0)
   ShowMessageFace("iriasu_fc4",2,0,2,8)
   ShowMessage("【イリアス】")
   ShowMessage("この町に淫気を振りまいたのは、「王妃」なる者の仕業ですね。")
   ShowMessage("その正体は、やはりクィーンアントなのでしょう？")
   0()
  EndIf()
  ShowMessageFace("nero_fc1",0,0,2,9)
  ShowMessage("【ネロ】")
  ShowMessage("……………………")
  If(0,4,0)
   ShowMessageFace("alice_fc5",2,0,2,10)
   ShowMessage("【アリス】")
   ShowMessage("重要な事となると、だんまりか……")
   0()
  EndIf()
  If(0,5,0)
   ShowMessageFace("iriasu_fc4",2,0,2,11)
   ShowMessage("【イリアス】")
   ShowMessage("こちらの質問のほとんどには、口を閉ざすのですね……")
   0()
  EndIf()
  PictureClear(5)
  EndEventProcessing()
  0()
 PAGE   3
  // condition: variable 1063 >= 8
  0()



EVENT   21
 PAGE   1
  If(1,1063,0,7,2)
   ShowMessageFace("",0,0,2,1)
   ShowMessage("【商人を装った工作員】")
   ShowMessage("私は……工作員です……")
   ShowMessage("伝えるべきメッセージは……")
   ShowMessageFace("",0,0,2,2)
   ShowMessage("額に符を貼られた男性は、うわごとを呟いている……")
   ShowMessageFace("nero_fc1",0,0,2,3)
   ShowMessage("【ネロ】")
   ShowMessage("責任上、彼を放置する事はできません……")
   ShowMessage("理性を取り戻すまでは様子を見ておきますので、ご心配なく。")
   EndEventProcessing()
   0()
  EndIf()
  If(1,1063,0,8,1)
   ShowMessageFace("",0,0,2,4)
   ShowMessage("【商人を装った工作員】")
   ShowMessage("おや、あなた達は……")
   ShowMessage("うむむ、どこかで会ったような気も……")
   EndEventProcessing()
   0()
  EndIf()
  0()



EVENT   22
 PAGE   1
  If(1,1063,0,12,2)
   ShowMessageFace("",0,0,2,1)
   ShowMessage("【中年男性】")
   ShowMessage("屋内に入ると、少しはマシになるんだけど……")
   ShowMessage("ああ、王妃様……")
   EndEventProcessing()
   0()
  EndIf()
  If(1,1063,0,13,1)
   ShowMessageFace("",0,0,2,2)
   ShowMessage("【中年男性】")
   ShowMessage("この町には、魔女伝説があるんだ。")
   ShowMessage("……と言っても、おどろおどろしいものじゃない。")
   ShowMessageFace("",0,0,2,3)
   ShowMessage("【中年男性】")
   ShowMessage("不思議な力が選ばれし少女に宿り、魔法少女になるらしい。")
   ShowMessage("今も一人、この町には魔法少女がいるよ。")
   EndEventProcessing()
   0()
  EndIf()
  0()



EVENT   23
 PAGE   1
  If(1,1063,0,12,2)
   ShowMessageFace("",0,0,2,1)
   ShowMessage("【中年女性】")
   ShowMessage("王妃様のおっしゃる通り……")
   ShowMessage("毎日、食事を作って……食べて、寝て……")
   If(0,4,0)
    ShowMessageFace("alice_fc5",0,0,2,2)
    ShowMessage("【アリス】")
    ShowMessage("強力な洗脳を受けながらも……")
    ShowMessage("いつも通りの日常生活を送るよう、指示を受けているようだな。")
    0()
   EndIf()
   If(0,5,0)
    ShowMessageFace("iriasu_fc4",2,0,2,3)
    ShowMessage("【イリアス】")
    ShowMessage("強力な洗脳を受けながらも……")
    ShowMessage("いつも通りの日常生活を送るよう、指示を受けているようですね。")
    0()
   EndIf()
   EndEventProcessing()
   0()
  EndIf()
  If(1,1063,0,13,1)
   ShowMessageFace("",0,0,2,4)
   ShowMessage("【中年女性】")
   ShowMessage("この町で育った娘は、みんな魔法少女に憧れるものだよ……")
   ShowMessage("あたしだって、そうだったさ。")
   EndEventProcessing()
   0()
  EndIf()
  0()



EVENT   24
 PAGE   1
  If(1,1063,0,12,2)
   ShowMessageFace("",0,0,2,1)
   ShowMessage("【旅の戦士】")
   ShowMessage("王妃様……王妃様のために……")
   EndEventProcessing()
   0()
  EndIf()
  If(1,1063,0,13,1)
   ShowMessageFace("",0,0,2,2)
   ShowMessage("【旅の戦士】")
   ShowMessage("洗脳の一件でショックを受けたのか、鍛冶屋が仕事をしてくれなくなった。")
   ShowMessage("グランゴルドまで出向くしかないか、やれやれ……")
   EndEventProcessing()
   0()
  EndIf()
  0()



EVENT   25
 PAGE   1
  If(1,1063,0,12,2)
   ShowMessageFace("",0,0,2,1)
   ShowMessage("【青年】")
   ShowMessage("ああ、王妃様ぁぁぁ……")
   EndEventProcessing()
   0()
  EndIf()
  If(1,1063,0,13,1)
   ShowMessageFace("",0,0,2,2)
   ShowMessage("【青年】")
   ShowMessage("もしもの時のために、財産の半分を貴金属に変えておこう。")
   ShowMessage("大戦争に魔王の宣戦布告、世の中荒れ放題だからね……")
   EndEventProcessing()
   0()
  EndIf()
  0()



EVENT   26
 PAGE   1
  If(1,1063,0,12,2)
   ShowMessageFace("",0,0,2,1)
   ShowMessage("【男】")
   ShowMessage("どんな美酒も、王妃様の魅力にはかなわない……")
   EndEventProcessing()
   0()
  EndIf()
  If(1,1063,0,13,1)
   ShowMessageFace("",0,0,2,2)
   ShowMessage("【男】")
   ShowMessage("理性を失った俺、ずっとこの酒場に通ってたらしい……")
   ShowMessage("意識がほとんどなくても、普段通りの行動を取るって本当なんだな。")
   EndEventProcessing()
   0()
  EndIf()
  0()



EVENT   27
 PAGE   1
  If(1,1063,0,12,2)
   ShowMessageFace("",0,0,2,1)
   ShowMessage("【あらくれ】")
   ShowMessage("王妃様のために死にてぇ……")
   ShowMessage("王妃様に殺されてもいい……")
   EndEventProcessing()
   0()
  EndIf()
  If(1,1063,0,13,1)
   ShowMessageFace("",0,0,2,2)
   ShowMessage("【あらくれ】")
   ShowMessage("噂じゃ、ここのマスターはドン・ファーザーの腹心って話だぜ。")
   ShowMessageFace("",0,0,2,3)
   ShowMessage("【戦士】")
   ShowMessage("いや、流石にそれはないな……")
   EndEventProcessing()
   0()
  EndIf()
  0()



EVENT   28
 PAGE   1
  If(1,1063,0,12,2)
   ShowMessageFace("",0,0,2,1)
   ShowMessage("【戦士】")
   ShowMessage("はぅぅ……あ、あ、王妃さまぁぁぁ……")
   EndEventProcessing()
   0()
  EndIf()
  If(1,1063,0,13,1)
   ShowMessageFace("",0,0,2,2)
   ShowMessage("【戦士】")
   ShowMessage("王妃の正体は、狐の妖魔だったそうな。")
   ShowMessage("グランゴルドを丸ごと我が物にするなんて、とんでもないヤツだな……")
   355("actor_label_jump")
   EndEventProcessing()
   DefineLabel("102")
   ShowMessageFace("youko_fc1",2,0,2,3)
   ShowMessage("【きつね】")
   ShowMessage("こんこん……あたしはいいキツネだよっ。")
   EndEventProcessing()
   DefineLabel("103")
   ShowMessageFace("kamuro_fc1",2,0,2,4)
   ShowMessage("【かむろ】")
   ShowMessage("狐族の評判が落ちてしまったかもしれませんね……")
   EndEventProcessing()
   0()
  EndIf()
  0()



EVENT   29
 PAGE   1
  If(1,1063,0,12,2)
   ShowMessageFace("",0,0,2,1)
   ShowMessage("【中年】")
   ShowMessage("おーひぃっぃ……")
   ShowMessage("うぉひ、お……おぉぉ……")
   EndEventProcessing()
   0()
  EndIf()
  If(1,1063,0,13,1)
   ShowMessageFace("",0,0,2,2)
   ShowMessage("【中年】")
   ShowMessage("勇者ルカ……いったい、どんな男なんだろうな。")
   ShowMessage("噂によれば、今年の女王杯で優勝した選手と同一人物らしいぞ。")
   EndEventProcessing()
   0()
  EndIf()
  0()



EVENT   30
 PAGE   1
  If(1,1063,0,12,2)
   ShowMessageFace("",0,0,2,1)
   ShowMessage("【おじさん】")
   ShowMessage("北東の岬に、広い海岸があってぇ……")
   ShowMessage("伝説じゃ、海底神殿に繋がる道がぁぁぁ……")
   ShowMessageFace("",0,0,2,2)
   ShowMessage("【おじさん】")
   ShowMessage("あぁぁぁぁるぅぅぅぅんんんだぁぁぁっってぇぇぇぇぇさぁぁぁぁぁ")
   EndEventProcessing()
   0()
  EndIf()
  If(1,1063,0,13,1)
   ShowMessageFace("",0,0,2,3)
   ShowMessage("【おじさん】")
   ShowMessage("東の大毒沼から、さらに東に進めばゴルド海岸がある。")
   ShowMessage("そこの波打ち際、ひときわ光を放つ場所で「導きの玉」を掲げれば――")
   ShowMessageFace("",0,0,2,4)
   ShowMessage("【おじさん】")
   ShowMessage("なんと、海底神殿に招待されるという話だ。")
   ShowMessage("海底神殿は南と北の二つがあるって話だが、北の海底神殿の方だな。")
   ShowMessageFace("",0,0,2,5)
   ShowMessage("【おじさん】")
   ShowMessage("まあもっとも、「導きの玉」ってのが結構な貴重品なんだけどな")
   ShowMessage("格の高い人魚なら、持ってるって話だが……")
   If(1,1068,0,2,2)
    If(8,514)
     ShowMessageFace("ruka_fc1",0,0,2,6)
     ShowMessage("【ルカ】")
     ShowMessage("導きの玉……")
     ShowMessage("確かナタリアポートで、マーメイドからもらったよね。")
     If(0,4,0)
      ShowMessageFace("alice_fc5",0,0,2,7)
      ShowMessage("【アリス】")
      ShowMessage("それがあれば、ゴルド海岸から海底神殿に行けるな。")
      ShowMessage("余裕があるなら、行ってみてはどうだ？")
      0()
     EndIf()
     If(0,5,0)
      ShowMessageFace("iriasu_fc4",0,0,2,8)
      ShowMessage("【イリアス】")
      ShowMessage("それがあれば、ゴルド海岸から海底神殿に行けますよ。")
      ShowMessage("余裕があるなら、襲撃してみてはどうですか？")
      0()
     EndIf()
     0()
    EndIf()
    0()
   EndIf()
   EndEventProcessing()
   0()
  EndIf()
  0()



EVENT   31
 PAGE   1
  If(1,1063,0,12,2)
   ShowMessageFace("",0,0,2,1)
   ShowMessage("【若い女性】")
   ShowMessage("王妃様、なんて素敵……")
   EndEventProcessing()
   0()
  EndIf()
  If(1,1063,0,13,1)
   ShowMessageFace("",0,0,2,2)
   ShowMessage("【若い女性】")
   ShowMessage("勇者ルカ……可愛い名前だけど、どうせ筋肉ムキムキのオッサンなんでしょ？")
   ShowMessage("キミみたいな可愛い少年勇者だったら、ファンになっちゃうけどね。")
   If(0,6,0)
    ShowMessageFace("sonia_fc1",5,0,2,3)
    ShowMessage("【ソニア】")
    ShowMessage("ここは、遠ざけておく！")
    0()
   EndIf()
   EndEventProcessing()
   0()
  EndIf()
  0()



EVENT   32
 PAGE   1
  If(1,1063,0,12,2)
   ShowMessageFace("",0,0,2,1)
   ShowMessage("【兵士】")
   ShowMessage("おぉぉ……王妃様ぁ……")
   ShowMessage("常に、あなた様のお側に……")
   EndEventProcessing()
   0()
  EndIf()
  If(1,1063,0,13,1)
   ShowMessageFace("",0,0,2,2)
   ShowMessage("【兵士】")
   ShowMessage("狐の王妃の次は、大魔王か……")
   ShowMessage("なんかもう、世界の終わりも近いんじゃないか？")
   EndEventProcessing()
   0()
  EndIf()
  0()



EVENT   33
 PAGE   1
  If(1,1063,0,12,2)
   ShowMessageFace("",0,0,2,1)
   ShowMessage("【旅の戦士】")
   ShowMessage("あぁぁ……王妃様の声がぁ……")
   EndEventProcessing()
   0()
  EndIf()
  If(1,1063,0,13,1)
   ShowMessageFace("",0,0,2,2)
   ShowMessage("【旅の戦士】")
   ShowMessage("最上級職ともなると、転職アイテムも非常にレアだ。")
   ShowMessage("各国の王が所持しているという噂だが、簡単に授けてもらえるはずもなし……")
   EndEventProcessing()
   0()
  EndIf()
  0()



EVENT   34
 PAGE   1
  If(1,1063,0,12,2)
   ShowMessageFace("",0,0,2,1)
   ShowMessage("【剣士】")
   ShowMessage("王妃様……ううっ、心が……")
   ShowMessage("この場から離れないと……ああ、王妃様……")
   EndEventProcessing()
   0()
  EndIf()
  If(1,1063,0,13,1)
   ShowMessageFace("",0,0,2,2)
   ShowMessage("【剣士】")
   ShowMessage("ああ、英雄になりそこねたわ。")
   ShowMessage("邪悪な王妃を、ズバッと退治するつもりだったのに……")
   EndEventProcessing()
   0()
  EndIf()
  0()



EVENT   35
 PAGE   1
  If(1,1063,0,12,2)
   ShowMessageFace("",0,0,2,1)
   ShowMessage("【旅の商人】")
   ShowMessage("王妃様に……")
   ShowMessage("王妃様に会いにぃ……")
   EndEventProcessing()
   0()
  EndIf()
  If(1,1063,0,13,1)
   ShowMessageFace("",0,0,2,2)
   ShowMessage("【旅の商人】")
   ShowMessage("ゴルド中央部へ、行商に向かう予定だったのですが……")
   ShowMessage("サキュバスの村も貴婦人の村も、なにやら不穏な噂を聞きますね。")
   EndEventProcessing()
   0()
  EndIf()
  0()



EVENT   36
 PAGE   1
  If(1,1063,0,12,2)
   ShowMessageFace("",0,0,2,1)
   ShowMessage("【魔導師】")
   ShowMessage("これほどの淫気、外だと正気が保てないわ……")
   ShowMessage("屋内でも、魔力でガードして精一杯よ……")
   ShowMessageFace("",0,0,2,2)
   ShowMessage("【魔導師】")
   ShowMessage("ここは、いったい……")
   ShowMessage("ああ、気を抜けば心が侵食される……")
   EndEventProcessing()
   0()
  EndIf()
  If(1,1063,0,13,1)
   ShowMessageFace("",0,0,2,3)
   ShowMessage("【魔導師】")
   ShowMessage("本当、散々な目に遭ったわ……")
   ShowMessage("早くこの町を出たいのだけど、相棒がまだ半分正気じゃないの。")
   ShowMessageFace("",0,0,2,4)
   ShowMessage("【魔導師】")
   ShowMessage("頭がカラッポな分、精神耐性がそこらへんの子供以下だったみたいね。")
   ShowMessage("組む相手を誤ったかしら……？")
   EndEventProcessing()
   0()
  EndIf()
  0()



EVENT   37
 PAGE   1
  If(1,1063,0,12,2)
   ShowMessageFace("",0,0,2,1)
   ShowMessage("【戦士】")
   ShowMessage("あはぁ……王妃様、王妃様、王妃様ぁ……")
   EndEventProcessing()
   0()
  EndIf()
  If(1,1063,0,13,1)
   ShowMessageFace("",0,0,2,2)
   ShowMessage("【戦士】")
   ShowMessage("王妃様　ああ王妃様　王妃様")
   EndEventProcessing()
   0()
  EndIf()
  0()



EVENT   38
 PAGE   1
  If(1,1063,0,12,2)
   ShowMessageFace("usagi_fc1",2,0,2,1)
   ShowMessage("【ウサギ娘】")
   ShowMessage("この町の人間達、ひどい事になっているようね……")
   ShowMessage("魔物の私でさえ、この淫気では長居したくないわ。")
   EndEventProcessing()
   0()
  EndIf()
  If(1,1063,0,13,1)
   ShowMessageFace("usagi_fc1",0,0,2,2)
   ShowMessage("【ウサギ娘】")
   ShowMessage("淫気が晴れて、良かったわね。")
   ShowMessage("もしかして、あなた達のおかげかしら……？")
   355("actor_label_jump")
   EndEventProcessing()
   DefineLabel("202")
   ShowMessageFace("bonny_fc1",1,0,2,3)
   ShowMessage("【ボニー】")
   ShowMessage("もちろん、我々のおかげだぞ！")
   ShowMessage("おさかな海賊団の名、覚えておくがいい！")
   EndEventProcessing()
   DefineLabel("203")
   ShowMessageFace("tatunoko_k_fc1",1,0,2,4)
   ShowMessage("【たつこ】")
   ShowMessage("勇者ルカwith海軍の活躍なのです！")
   EndEventProcessing()
   0()
  EndIf()
  0()



EVENT   39
 PAGE   1
  If(1,1063,0,12,2)
   ShowMessageFace("",0,0,2,1)
   ShowMessage("【少年】")
   ShowMessage("ふにゃぁぁぁぁ……")
   EndEventProcessing()
   0()
  EndIf()
  If(1,1063,0,13,1)
   If(1,1078,0,4,2)
    ShowMessageFace("",0,0,2,2)
    ShowMessage("【少年】")
    ShowMessage("マジカル☆まりんちゃんから聞いたよ。")
    ShowMessage("東の大毒沼で、もうすぐ魔女っ子バトルロイヤルが始まるんだって。")
    ShowMessageFace("",0,0,2,3)
    ShowMessage("【少年】")
    ShowMessage("でも、僕は男の子だから参加できないの……")
    ShowMessage("女の子に生まれたら良かったのに。")
    EndEventProcessing()
    0()
   EndIf()
   If(1,1078,0,5,1)
    ShowMessageFace("",0,0,2,4)
    ShowMessage("【少年】")
    ShowMessage("マジカル☆まりんちゃんから聞いたよ。")
    ShowMessage("新しい魔法少女が決まったんだって。")
    ShowMessageFace("",0,0,2,5)
    ShowMessage("【少年】")
    ShowMessage("でも、どんな人かは教えてくれなかったの。")
    ShowMessage("きっと、とっても可愛い女の子だよね？")
    EndEventProcessing()
    0()
   EndIf()
   0()
  EndIf()
  0()



EVENT   40
 PAGE   1
  // condition: switch 31 is ON
  0()



EVENT   41
 PAGE   1
  250(bytes(0x04,0x08,0x6f,0x3a,0x0c,0x52,0x50,0x47,0x3a,0x3a,0x53,0x45,0x08,0x3a,0x0a,0x40,0x6e,0x61,0x6d,0x65,0x49,0x22,0x0a,0x49,0x74,0x65,0x6d,0x31,0x06,0x3a,0x06,0x45,0x54,0x3a,0x0b,0x40,0x70,0x69,0x74,0x63,0x68,0x69,0x69,0x3a,0x0c,0x40,0x76,0x6f,0x6c,0x75,0x6d,0x65,0x69,0x55))
  ChangeSelfSwitch("A",0)
  ChangeInventory_Item(32,0,0,1)
  0()
 PAGE   2
  // condition: self-switch A is ON
  0()



EVENT   42
 PAGE   1
  250(bytes(0x04,0x08,0x6f,0x3a,0x0c,0x52,0x50,0x47,0x3a,0x3a,0x53,0x45,0x08,0x3a,0x0a,0x40,0x6e,0x61,0x6d,0x65,0x49,0x22,0x0a,0x49,0x74,0x65,0x6d,0x31,0x06,0x3a,0x06,0x45,0x54,0x3a,0x0b,0x40,0x70,0x69,0x74,0x63,0x68,0x69,0x69,0x3a,0x0c,0x40,0x76,0x6f,0x6c,0x75,0x6d,0x65,0x69,0x55))
  ChangeSelfSwitch("A",0)
  ChangeInventory_Item(27,0,0,1)
  0()
 PAGE   2
  // condition: self-switch A is ON
  0()



EVENT   43
 PAGE   1
  250(bytes(0x04,0x08,0x6f,0x3a,0x0c,0x52,0x50,0x47,0x3a,0x3a,0x53,0x45,0x08,0x3a,0x0a,0x40,0x6e,0x61,0x6d,0x65,0x49,0x22,0x0a,0x49,0x74,0x65,0x6d,0x31,0x06,0x3a,0x06,0x45,0x54,0x3a,0x0b,0x40,0x70,0x69,0x74,0x63,0x68,0x69,0x69,0x3a,0x0c,0x40,0x76,0x6f,0x6c,0x75,0x6d,0x65,0x69,0x55))
  ChangeSelfSwitch("A",0)
  ChangeInventory_Item(430,0,0,1)
  0()
 PAGE   2
  // condition: self-switch A is ON
  0()



EVENT   44
 PAGE   1
  250(bytes(0x04,0x08,0x6f,0x3a,0x0c,0x52,0x50,0x47,0x3a,0x3a,0x53,0x45,0x08,0x3a,0x0a,0x40,0x6e,0x61,0x6d,0x65,0x49,0x22,0x0a,0x49,0x74,0x65,0x6d,0x31,0x06,0x3a,0x06,0x45,0x54,0x3a,0x0b,0x40,0x70,0x69,0x74,0x63,0x68,0x69,0x69,0x3a,0x0c,0x40,0x76,0x6f,0x6c,0x75,0x6d,0x65,0x69,0x55))
  ChangeSelfSwitch("A",0)
  ChangeInventory_Item(23,0,0,1)
  0()
 PAGE   2
  // condition: self-switch A is ON
  0()



EVENT   45
 PAGE   1
  250(bytes(0x04,0x08,0x6f,0x3a,0x0c,0x52,0x50,0x47,0x3a,0x3a,0x53,0x45,0x08,0x3a,0x0a,0x40,0x6e,0x61,0x6d,0x65,0x49,0x22,0x0a,0x49,0x74,0x65,0x6d,0x31,0x06,0x3a,0x06,0x45,0x54,0x3a,0x0b,0x40,0x70,0x69,0x74,0x63,0x68,0x69,0x69,0x3a,0x0c,0x40,0x76,0x6f,0x6c,0x75,0x6d,0x65,0x69,0x55))
  ChangeSelfSwitch("A",0)
  ChangeInventory_Item(2,0,0,1)
  0()
 PAGE   2
  // condition: self-switch A is ON
  0()



EVENT   46
 PAGE   1
  250(bytes(0x04,0x08,0x6f,0x3a,0x0c,0x52,0x50,0x47,0x3a,0x3a,0x53,0x45,0x08,0x3a,0x0a,0x40,0x6e,0x61,0x6d,0x65,0x49,0x22,0x0a,0x49,0x74,0x65,0x6d,0x31,0x06,0x3a,0x06,0x45,0x54,0x3a,0x0b,0x40,0x70,0x69,0x74,0x63,0x68,0x69,0x69,0x3a,0x0c,0x40,0x76,0x6f,0x6c,0x75,0x6d,0x65,0x69,0x55))
  ChangeSelfSwitch("A",0)
  ChangeInventory_Item(208,0,0,1)
  0()
 PAGE   2
  // condition: self-switch A is ON
  0()



EVENT   47
 PAGE   1
  250(bytes(0x04,0x08,0x6f,0x3a,0x0c,0x52,0x50,0x47,0x3a,0x3a,0x53,0x45,0x08,0x3a,0x0a,0x40,0x6e,0x61,0x6d,0x65,0x49,0x22,0x0a,0x49,0x74,0x65,0x6d,0x31,0x06,0x3a,0x06,0x45,0x54,0x3a,0x0b,0x40,0x70,0x69,0x74,0x63,0x68,0x69,0x69,0x3a,0x0c,0x40,0x76,0x6f,0x6c,0x75,0x6d,0x65,0x69,0x55))
  ChangeSelfSwitch("A",0)
  ChangeInventory_Item(15,0,0,1)
  0()
 PAGE   2
  // condition: self-switch A is ON
  0()



EVENT   48
 PAGE   1
  250(bytes(0x04,0x08,0x6f,0x3a,0x0c,0x52,0x50,0x47,0x3a,0x3a,0x53,0x45,0x08,0x3a,0x0a,0x40,0x6e,0x61,0x6d,0x65,0x49,0x22,0x0a,0x49,0x74,0x65,0x6d,0x31,0x06,0x3a,0x06,0x45,0x54,0x3a,0x0b,0x40,0x70,0x69,0x74,0x63,0x68,0x69,0x69,0x3a,0x0c,0x40,0x76,0x6f,0x6c,0x75,0x6d,0x65,0x69,0x55))
  ChangeSelfSwitch("A",0)
  ChangeInventory_Item(25,0,0,1)
  0()
 PAGE   2
  // condition: self-switch A is ON
  0()



EVENT   49
 PAGE   1
  241(bytes(0x04,0x08,0x6f,0x3a,0x0d,0x52,0x50,0x47,0x3a,0x3a,0x42,0x47,0x4d,0x08,0x3a,0x0a,0x40,0x6e,0x61,0x6d,0x65,0x49,0x22,0x0a,0x6d,0x75,0x72,0x61,0x33,0x06,0x3a,0x06,0x45,0x54,0x3a,0x0c,0x40,0x76,0x6f,0x6c,0x75,0x6d,0x65,0x69,0x69,0x3a,0x0b,0x40,0x70,0x69,0x74,0x63,0x68,0x69,0x69))
  TemporaryRemoveEvent()
  0()
 PAGE   2
  // condition: variable 1063 >= 13
  0()
